{
  "name": "fontello",
  "css_prefix_text": "icon-",
  "css_use_suffix": false,
  "hinting": true,
  "units_per_em": 1000,
  "ascent": 850,
  "glyphs": [
    {
      "uid": "9dd9e835aebe1060ba7190ad2b2ed951",
      "css": "search",
      "code": 59401,
      "src": "fontawesome"
    },
    {
      "uid": "0ddd3e8201ccc7d41f7b7c9d27eca6c1",
      "css": "link",
      "code": 59393,
      "src": "fontawesome"
    },
    {
      "uid": "72b1277834cba5b7944b0a6cac7ddb0d",
      "css": "rss",
      "code": 59399,
      "src": "fontawesome"
    },
    {
      "uid": "559647a6f430b3aeadbecd67194451dd",
      "css": "menu",
      "code": 59400,
      "src": "fontawesome"
    },
    {
      "uid": "52725ff4d4042964bd3a60609bf3695b",
      "css": "right-circled",
      "code": 59392,
      "src": "entypo"
    },
    {
      "uid": "d090355c31f497b61d676416c1fd39fb",
      "css": "twitter",
      "code": 59398,
      "src": "entypo"
    },
    {
      "uid": "d491462e64eb5b8c4f064108a2ff1780",
      "css": "tumblr",
      "code": 59397,
      "src": "entypo"
    },
    {
      "uid": "53d4dc777eeba379412efba3ee1cac9e",
      "css": "facebook",
      "code": 59394,
      "src": "mfglabs"
    },
    {
      "uid": "c896fd4e287aebcf79803e0ece001ec1",
      "css": "gplus",
      "code": 59395,
      "src": "mfglabs"
    },
    {
      "uid": "2653481d01fec1b76247dbeffb74033e",
      "css": "dribbble",
      "code": 59396,
      "src": "mfglabs"
    }
  ]
}