<?xml version="1.0" standalone="no"?>
<!DOCTYPE svg PUBLIC "-//W3C//DTD SVG 1.1//EN" "http://www.w3.org/Graphics/SVG/1.1/DTD/svg11.dtd">
<svg xmlns="http://www.w3.org/2000/svg">
<metadata>Copyright (C) 2014 by original authors @ fontello.com</metadata>
<defs>
<font id="fontello" horiz-adv-x="1000" >
<font-face font-family="fontello" font-weight="400" font-stretch="normal" units-per-em="1000" ascent="850" descent="-150" />
<missing-glyph horiz-adv-x="1000" />
<glyph glyph-name="search" unicode="&#xe809;" d="m643 386q0 103-74 176t-176 74t-177-74t-73-176t73-177t177-73t176 73t74 177z m286-465q0-29-22-50t-50-21q-30 0-50 21l-191 191q-100-69-223-69q-80 0-153 31t-125 84t-84 125t-31 153t31 152t84 126t125 84t153 31t152-31t126-84t84-126t31-152q0-123-69-223l191-191q21-21 21-51z" horiz-adv-x="928.6" />
<glyph glyph-name="link" unicode="&#xe801;" d="m812 171q0 23-15 38l-116 116q-16 16-38 16q-24 0-40-18q1-1 10-10t12-12t9-11t7-14t2-15q0-23-16-38t-38-16q-8 0-15 2t-14 7t-11 9t-12 12t-10 10q-19-17-19-40q0-23 16-38l115-116q15-15 38-15q22 0 38 15l82 81q15 16 15 37z m-392 394q0 22-15 38l-115 115q-16 16-38 16q-22 0-38-15l-82-82q-16-15-16-37q0-22 16-38l116-116q15-15 38-15q23 0 40 17q-2 2-11 11t-12 12t-8 10t-7 14t-2 16q0 22 15 38t38 15q9 0 16-2t14-7t10-8t12-12t11-11q18 17 18 41z m500-394q0-67-48-113l-82-81q-46-47-113-47q-68 0-114 48l-115 115q-46 47-46 114q0 68 49 116l-49 49q-48-49-116-49q-67 0-114 47l-116 116q-47 47-47 114t47 113l82 82q47 46 114 46q67 0 114-47l114-116q47-46 47-113q0-69-49-117l49-49q48 49 116 49q67 0 114-47l116-116q47-47 47-114z" horiz-adv-x="928.6" />
<glyph glyph-name="rss" unicode="&#xe807;" d="m214 100q0-45-31-76t-76-31t-76 31t-31 76t31 76t76 31t76-31t31-76z m286-69q1-15-9-26q-11-12-27-12h-75q-14 0-24 9t-11 23q-12 128-103 219t-219 103q-14 1-23 11t-9 24v75q0 16 12 26q9 10 24 10h3q89-7 170-45t145-101q63-63 101-145t45-171z m286-1q1-15-10-26q-10-11-26-11h-80q-14 0-25 10t-11 23q-6 120-56 228t-129 188t-188 129t-227 57q-14 0-24 11t-10 24v80q0 15 11 26q10 10 25 10h1q147-8 280-67t238-164q104-104 164-238t67-280z" horiz-adv-x="785.7" />
<glyph glyph-name="menu" unicode="&#xe808;" d="m857 100v-71q0-15-10-25t-26-11h-785q-15 0-25 11t-11 25v71q0 15 11 25t25 11h785q15 0 26-11t10-25z m0 286v-72q0-14-10-25t-26-10h-785q-15 0-25 10t-11 25v72q0 14 11 25t25 10h785q15 0 26-10t10-25z m0 285v-71q0-15-10-25t-26-11h-785q-15 0-25 11t-11 25v71q0 15 11 26t25 10h785q15 0 26-10t10-26z" horiz-adv-x="857.1" />
<glyph glyph-name="right-circled" unicode="&#xe800;" d="m0 350q0 190 135 325t325 135t325-135t135-325t-135-325t-325-135t-325 135t-135 325z m820 0q0 150-105 255t-255 105q-148 0-254-105t-106-255q0-148 106-254t254-106q150 0 255 106t105 254z m-552 90l204 0l0 114l190-204l-190-202l0 112l-204 0l0 180z" horiz-adv-x="920" />
<glyph glyph-name="twitter" unicode="&#xe806;" d="m920 636q-36-54-94-98l0-24q0-130-60-250t-186-203t-290-83q-160 0-290 84q14-2 46-2q132 0 234 80q-62 2-110 38t-66 94q10-4 34-4q26 0 50 6q-66 14-108 66t-42 120l0 2q36-20 84-24q-84 58-84 158q0 48 26 94q154-188 390-196q-6 18-6 42q0 78 55 133t135 55q82 0 136-58q60 12 120 44q-20-66-82-104q56 8 108 30z" horiz-adv-x="920" />
<glyph glyph-name="tumblr" unicode="&#xe805;" d="m560-58q-48-26-106-40q-48-12-102-12q-58 0-110 16q-54 20-82 46q-36 32-46 64q-14 30-14 96l0 322l-100 0l0 130q54 18 92 50t62 80q24 52 30 116l130 0l0-232l216 0l0-144l-216 0l0-236q0-84 8-102q10-24 32-36q28-20 68-20q68 0 138 46l0-144z" horiz-adv-x="560" />
<glyph glyph-name="facebook" unicode="&#xe802;" d="m0 350h97v-469h193v469h130l17 161h-146v81q0 18 2 28t8 20t19 13t35 4h81v161h-129q-112 0-161-53t-49-157v-97h-97v-161z" horiz-adv-x="437.5" />
<glyph glyph-name="gplus" unicode="&#xe803;" d="m0 57q0-39 17-68q30-55 105-82q63-26 136-26t133 20t100 52t60 74t22 87q0 63-34 108q-26 36-69 68q-15 11-32 28q-34 28-34 55q0 32 45 73q15 13 37 36q19 21 32 54t12 72q0 51-22 96t-62 70h76l76 44h-246q-53 0-106-11q-78-17-131-80t-53-141q0-82 59-138t145-55q8 0 39 3q-2-6-9-24q-4-11-4-25q0-38 36-84q-37 0-84-7q-110-18-169-60q-34-25-55-64t-20-75z m104 26q0 34 16 61q27 47 94 68q58 18 120 18q9 0 28-2q1 0 16-11t20-13q14-9 36-27q1-2 9-9t13-12t8-10q2-2 3-5t4-6t5-7q6-9 10-19q7-24 7-43q0-35-15-61t-42-42q-50-30-120-30q-76 0-139 35q-33 17-53 47t-20 68z m61 563q0 57 30 94t81 38q36 0 66-22t48-60q36-74 36-145q0-59-26-92t-77-32q-28 0-55 14q-45 26-76 91q-27 57-27 114z m412-43h144v-145h72v145h144v72h-144v143h-72v-143h-144v-72z" horiz-adv-x="937.5" />
<glyph glyph-name="dribbble" unicode="&#xe804;" d="m0 351q0 95 37 181t99 149t149 100t182 37q96 0 183-37t150-100t100-149t37-181q0-95-37-182t-100-150t-150-100t-183-38t-182 38t-149 100t-99 150t-37 182z m78-20q2-69 29-132t75-113q58 88 141 152t185 99q-12 22-24 55q-179-64-351-64q-9 0-27 2t-28 1z m3 78h52q165 0 316 55q-60 114-161 233q-82-44-137-120t-70-168z m158-377q109-73 228-73q66 0 124 21q-13 143-58 282q-90-30-165-89t-129-141z m128 694q90-113 155-233q118 52 216 138q-54 53-124 81t-147 28q-45 0-100-14z m190-306q4-10 12-32t13-31q77 15 128 15q58 0 149-21q0 113-69 219q-111-92-233-150z m52-138q38-118 57-268q71 41 119 109t66 151q-72 17-141 17q-54 0-101-9z" horiz-adv-x="937.5" />
</font>
</defs>
</svg>